construct_dataset
…
  ## Clean dataset, remove weird characters in names 
  mutate(
     country = str_replace(country, "//[c]", "")
  ) %>%
  apply(., 2, function(country) as.character(gsub("\\[|a\\]","",country))) %>%
  apply(., 2, function(country) as.character(gsub("\\[|b\\]","",country))) %>%
  apply(., 2, function(country) as.character(gsub("\\[|c\\]","",country))) %>%
  apply(., 2, function(country) as.character(gsub("\\[|d\\]","",country))) %>%
  apply(., 2, function(country) as.character(gsub("\\[|e\\]","",country))) %>%
  apply(., 2, function(country) as.character(gsub("\\[|f\\]","",country))) %>%
  as_tibble()
  
wc_stats

## # A tibble: 80 × 10
##    country     part  pld   w     d     l     gf    ga    gd    pts  
##    <chr>       <chr> <chr> <chr> <chr> <chr> <chr> <chr> <chr> <chr>
##  1 Brazil      22    "113" 76    18    19    "236" "107" +129  "246"
##  2 Germany     20    "112" 68    21    23    "232" "130" +102  "225"
##  3 Italy       18    " 83" 45    21    17    "128" " 77" +51   "156"
##  4 Argentina   18    " 85" 46    15    24    "144" " 96" +48   "153"
##  5 France      16    " 70" 37    13    20    "129" " 81" +48   "124"
##  6 England     16    " 73" 32    22    19    "103" " 66" +37   "118"
##  7 Spain       16    " 66" 31    16    19    "108" " 75" +33   "109"
##  8 Netherlands 11    " 54" 30    13    11    " 94" " 50" +44   "103"
##  9 Uruguay     14    " 59" 25    13    21    " 89" " 76" +13   " 88"
## 10 Belgium     14    " 51" 21    10    20    " 69" " 74" −5    " 73"
## # … with 70 more rows
…
