Data Science Dashboard
…
  sample_n(2000) %>% 
  janitor::clean_names() %>% 
   separate(date, into = c("year", "month", "day")) %>% 
  mutate(year = as.integer(year), month = as.integer(month), day = as.integer(day)) %>% 
  mutate(month = month.name[as.integer(month)]) %>% 
  mutate(tmin= as.numeric(tmin)) %>% 
  mutate(tmin = as.numeric(tmin / 10)) %>%
  mutate(tmax= as.numeric(tmax)) %>% 
  mutate(tmax = as.numeric(tmax / 10)) %>%
  mutate(prcp= as.numeric(prcp)) %>% 
  mutate(prcp = as.numeric(prcp / 10)) %>% 
 select(id, year, month, day, prcp, snow, snwd, tmax, tmin)
ny_noaa_tidy2

## # A tibble: 2,000 × 9
##    id           year month      day  prcp  snow  snwd  tmax  tmin
##    <chr>       <int> <chr>    <int> <dbl> <int> <int> <dbl> <dbl>
##  1 USC00309072  1995 January     25   0.3    13    25  NA    NA  
##  2 USC00307484  1989 October      8   0       0     0  11.1   6.1
##  3 USC00303319  1998 March       14   0       5    25   0.6 -12.2
##  4 USC00305925  1994 July         1   3       0     0  NA    NA  
##  5 USC00300183  1993 December    19   3.6    25    25   2.2  -5.6
##  6 USC00307750  2006 December     2  13.2     0     0  NA    NA  
##  7 USC00308058  1982 October     21  50.3    NA    NA  21.1   4.4
##  8 USC00308160  1998 July        14   0       0     0  NA    NA  
##  9 US1NYOS0013  1998 June        22  NA      NA    NA  NA    NA  
## 10 USC00305377  1990 August       2   0       0     0  30    14.4
## # … with 1,990 more rows
…
